98.12.11 10:14 B D:\MacPac\Contacts Integration\vbp-EXE\frmApp.frm --> ftp-www.earthlink.net /webdocs/CIEX/981211 frmApp.frm
98.12.11 10:14 B D:\MacPac\Contacts Integration\vbp-EXE\frmApp.frx --> ftp-www.earthlink.net /webdocs/CIEX/981211 frmApp.frx
98.12.11 10:14 B D:\MacPac\Contacts Integration\vbp-EXE\frmClient.frm --> ftp-www.earthlink.net /webdocs/CIEX/981211 frmClient.frm
98.12.11 10:14 B D:\MacPac\Contacts Integration\vbp-EXE\frmContacts.frm --> ftp-www.earthlink.net /webdocs/CIEX/981211 frmContacts.frm
98.12.11 10:15 B D:\MacPac\Contacts Integration\vbp-EXE\frmContacts.frx --> ftp-www.earthlink.net /webdocs/CIEX/981211 frmContacts.frx
98.12.11 10:15 B D:\MacPac\Contacts Integration\vbp-EXE\mpCIEX.exe --> ftp-www.earthlink.net /webdocs/CIEX/981211 mpCIEX.exe
98.12.11 10:15 B D:\MacPac\Contacts Integration\vbp-EXE\mpCIEX.vbg --> ftp-www.earthlink.net /webdocs/CIEX/981211 mpCIEX.vbg
98.12.11 10:15 B D:\MacPac\Contacts Integration\vbp-EXE\mpCIEX.vbp --> ftp-www.earthlink.net /webdocs/CIEX/981211 mpCIEX.vbp
98.12.11 10:15 B D:\MacPac\Contacts Integration\vbp-EXE\mpCIEX.vbw --> ftp-www.earthlink.net /webdocs/CIEX/981211 mpCIEX.vbw
98.12.11 10:15 B D:\MacPac\Contacts Integration\vbp-EXE\Tester.vbp --> ftp-www.earthlink.net /webdocs/CIEX/981211 Tester.vbp
98.12.11 10:15 B D:\MacPac\Contacts Integration\vbp-EXE\Tester.vbw --> ftp-www.earthlink.net /webdocs/CIEX/981211 Tester.vbw
102.02.15 09:35 B E:\Work\MacPac\CI\vbp-EXE\mpCIEX.exe --> 66.134.136.153 /D:/Projects/Generic/CI/1.x/docs mpCIEX.exe
102.02.15 09:47 B E:\Work\MacPac\CI\vbp-EXE\mpCIEX.exe --> 66.134.136.153 /D:/Projects/Generic/CI/1.x/docs mpCIEX.exe
